MAT381E-Week 10: Creating and Visualizing Networks
…
---
- The current **active data table** can always be extracted as a **tibble** using `as_tibble()`:

```r
bitcoin_tbl_graph %>% 
  activate(nodes) %>% 
  as_tibble()
```

```
#> # A tibble: 3,783 × 1
#>    name 
#>    <chr>
#>  1 2    
#>  2 10   
#>  3 113  
#>  4 119  
#>  5 54   
#>  6 168  
#>  7 271  
#>  8 474  
#>  9 37   
#> 10 99   
#> # … with 3,773 more rows
```
…
---
- Get edges data:

```r
bitcoin_tbl_graph %>% 
  activate(edges) %>% 
  as_tibble()
```

```
#> # A tibble: 24,186 × 3
#>     from    to weight
#>    <int> <int>  <dbl>
#>  1     1    41    0.1
#>  2     2  3287    0.8
#>  3     3     5    0.4
#>  4     2     7    0.8
#>  5     4     1    0.8
#>  6     4     5    0.5
#>  7     4     7    0.8
#>  8     5     4    0.5
#>  9     4    17    0.9
#> 10     6    20    0.1
#> # … with 24,176 more rows
```
…
